<svg width="71" height="30" viewBox="0 0 71 30" fill="none" xmlns="http://www.w3.org/2000/svg">
<path d="M7.13764e-06 11.25C7.40879e-06 5.04675 5.59875 -2.85878e-06 12.4805 -2.55797e-06L54.3594 -7.27385e-07C63.535 -3.26305e-07 71 6.729 71 15C71 23.271 63.535 30 54.3594 30L12.4805 30L12.4805 26.25L54.3594 26.25C61.2411 26.25 66.8398 21.2032 66.8398 15C66.8398 8.79675 61.2411 3.75 54.3594 3.75L12.4805 3.75C7.89266 3.75 4.16016 7.1145 4.16016 11.25C4.16016 15.3855 7.89265 18.75 12.4805 18.75L46.0391 18.75C48.333 18.75 50.1992 17.0677 50.1992 15C50.1992 12.9322 48.333 11.25 46.0391 11.25L12.4805 11.25L12.4805 7.5L46.0391 7.5C50.6269 7.5 54.3594 10.8645 54.3594 15C54.3594 19.1355 50.6269 22.5 46.0391 22.5L12.4805 22.5C5.59874 22.5 6.86649e-06 17.4532 7.13764e-06 11.25Z" fill="#052852"/>
</svg>
