<svg width="50" height="50" viewBox="0 0 50 50" fill="none" xmlns="http://www.w3.org/2000/svg">
<rect width="50" height="50" rx="25" fill="#F3F3F5"/>
<path d="M38.4145 20.5837C37.901 20.0698 37.0845 20.0375 36.5324 20.4873C36.4526 20.5524 36.5144 20.4951 35.2988 21.7107L38.4543 24.8662L39.5883 23.7463C40.1366 23.198 40.1366 22.3059 39.5883 21.7575L38.4145 20.5837Z" fill="#0595F7"/>
<path d="M28.8284 28.2413L26.9722 32.2189C26.8472 32.4869 26.9031 32.8043 27.1122 33.0134C27.3213 33.2225 27.6389 33.2784 27.9067 33.1534L31.8843 31.2972C32.0416 31.2237 31.5652 31.6696 37.454 25.8543L34.3048 22.7051C28.4662 28.5438 28.9033 28.0809 28.8284 28.2413Z" fill="#0595F7"/>
<path d="M33.0683 32.1611C32.8961 32.3312 32.6976 32.4692 32.4784 32.5715L28.5009 34.4277C27.7187 34.7927 26.7632 34.6538 26.1174 34.0078C25.4925 33.383 25.3237 32.4251 25.6974 31.6242L27.5536 27.6466C27.6578 27.4232 27.7991 27.2215 27.9734 27.0472L33.9531 21.0675V15.1094C33.9531 13.9463 33.0069 13 31.8438 13H18.1094C16.9463 13 16 13.9463 16 15.1094V34.8906C16 36.0537 16.9463 37 18.1094 37H31.8438C33.0069 37 33.9531 36.0537 33.9531 34.8906V31.2873L33.0683 32.1611ZM19.75 17.5469H30.25C30.6384 17.5469 30.9532 17.8617 30.9532 18.25C30.9532 18.6383 30.6384 18.9531 30.25 18.9531H19.75C19.3617 18.9531 19.0469 18.6383 19.0469 18.25C19.0469 17.8617 19.3617 17.5469 19.75 17.5469ZM19.75 21.2969H28C28.3884 21.2969 28.7032 21.6117 28.7032 22C28.7032 22.3883 28.3884 22.7031 28 22.7031H19.75C19.3617 22.7031 19.0469 22.3883 19.0469 22C19.0469 21.6117 19.3617 21.2969 19.75 21.2969ZM19.0469 25.75C19.0469 25.3617 19.3617 25.0469 19.75 25.0469H25.75C26.1384 25.0469 26.4532 25.3617 26.4532 25.75C26.4532 26.1383 26.1384 26.4531 25.75 26.4531H19.75C19.3617 26.4531 19.0469 26.1383 19.0469 25.75Z" fill="#0595F7"/>
</svg>
