<svg width="40" height="40" viewBox="0 0 40 40" fill="none" xmlns="http://www.w3.org/2000/svg">
<path d="M12.9076 29.8829L12.4909 30.2997C12.2621 30.5285 12.2622 30.8995 12.4909 31.1283C12.7198 31.3571 13.0908 31.3572 13.3196 31.1283L13.7363 30.7116C13.9651 30.4827 13.9651 30.1117 13.7363 29.8829C13.5074 29.6541 13.1365 29.6541 12.9076 29.8829Z" fill="#0595F7"/>
<path d="M10.5562 23.0338H9.96679C9.6432 23.0338 9.38086 23.2961 9.38086 23.6197C9.38086 23.9433 9.6432 24.2056 9.96679 24.2056H10.5562C10.8798 24.2056 11.1421 23.9433 11.1421 23.6197C11.1421 23.2961 10.8798 23.0338 10.5562 23.0338Z" fill="#0595F7"/>
<path d="M26.2634 29.8829C26.0346 30.1117 26.0346 30.4827 26.2634 30.7115L26.6801 31.1283C26.909 31.3572 27.2799 31.3572 27.5088 31.1283C27.7376 30.8995 27.7376 30.5285 27.5088 30.2997L27.0921 29.8829C26.8633 29.6541 26.4922 29.6541 26.2634 29.8829Z" fill="#0595F7"/>
<path d="M13.7363 16.5278L13.3196 16.1111C13.0907 15.8822 12.7197 15.8822 12.491 16.1111C12.2621 16.3399 12.2621 16.7109 12.491 16.9397L12.9077 17.3564C13.1365 17.5852 13.5075 17.5852 13.7363 17.3564C13.9651 17.1276 13.9651 16.7565 13.7363 16.5278Z" fill="#0595F7"/>
<path d="M19.4141 33.0632V33.6526C19.4141 33.9762 19.6764 34.2385 20 34.2385C20.3236 34.2385 20.5859 33.9762 20.5859 33.6526V33.0632C20.5859 32.7396 20.3236 32.4773 20 32.4773C19.6764 32.4773 19.4141 32.7396 19.4141 33.0632Z" fill="#0595F7"/>
<path d="M36.9929 12.3445C37.7441 11.5933 37.7441 10.3709 36.9929 9.61977L34.3091 6.93594C33.5579 6.18477 32.3356 6.18477 31.5844 6.93594C30.9105 7.60992 30.8432 8.66203 31.3785 9.41391L30.209 10.5834C28.0312 8.8607 25.4102 7.67531 22.5473 7.2293V5.76594H23.2471C24.3694 5.76594 25.2825 4.85289 25.2825 3.73055V2.03539C25.2825 0.913047 24.3694 0 23.247 0H16.7526C15.6302 0 14.7172 0.913047 14.7172 2.03539V3.73055C14.7172 4.85289 15.6303 5.76594 16.7526 5.76594H17.4523V7.22938C14.5895 7.67539 11.9684 8.86078 9.7907 10.5835L8.62117 9.41398C9.15648 8.66203 9.08914 7.61 8.41523 6.93602C7.66414 6.18484 6.4418 6.18484 5.69055 6.93602L3.0068 9.61977C2.25555 10.3709 2.25555 11.5933 3.0068 12.3445C3.68453 13.0222 4.73625 13.0879 5.48617 12.5518L6.71031 13.7759C4.70352 16.5066 3.51602 19.8751 3.51602 23.5161C3.51602 32.6054 10.9106 40 19.9998 40C29.0891 40 36.4837 32.6054 36.4837 23.5162C36.4837 19.8752 35.2962 16.5067 33.2894 13.776L34.5135 12.5519C35.261 13.0861 36.3131 13.0243 36.9929 12.3445ZM32.413 7.76461C32.5602 7.6175 32.7535 7.54391 32.9468 7.54391C33.1401 7.54391 33.3334 7.6175 33.4805 7.76461L36.1643 10.4484C36.4586 10.7427 36.4586 11.2215 36.1643 11.5159C35.8694 11.8108 35.3919 11.8109 35.0969 11.5159L32.413 8.83203C32.1187 8.53773 32.1187 8.05891 32.413 7.76461ZM15.8891 3.73055V2.03539C15.8891 1.55922 16.2764 1.17188 16.7526 1.17188H23.247C23.7232 1.17188 24.1105 1.55922 24.1105 2.03539V3.73055C24.1105 4.20672 23.7232 4.59406 23.247 4.59406H16.7526C16.2765 4.59406 15.8891 4.20672 15.8891 3.73055ZM18.6243 5.76594H21.3755V7.09023C20.9217 7.05258 20.4631 7.03234 19.9998 7.03234C19.5366 7.03234 19.078 7.05258 18.6243 7.09023V5.76594ZM3.83547 11.5158C3.54117 11.2215 3.54117 10.7427 3.83547 10.4483L6.51922 7.76453C6.81344 7.47031 7.29234 7.47016 7.58664 7.76453C7.88094 8.05883 7.88094 8.53766 7.58664 8.83195L4.90281 11.5158C4.60797 11.8108 4.13047 11.8108 3.83547 11.5158ZM6.33375 11.7422L7.81297 10.263L8.895 11.345C8.37961 11.8156 7.89469 12.3189 7.44227 12.8508L6.33375 11.7422ZM19.9998 38.8281C11.5568 38.8281 4.68789 31.9592 4.68789 23.5162C4.68789 15.0731 11.5568 8.20422 19.9998 8.20422C28.4429 8.20422 35.3118 15.0731 35.3118 23.5162C35.3118 31.9592 28.4429 38.8281 19.9998 38.8281ZM31.1047 11.345L32.1867 10.263L33.6659 11.7422L32.5574 12.8508C32.105 12.3189 31.62 11.8156 31.1047 11.345Z" fill="#0595F7"/>
<path d="M7.74602 23.5161C7.74602 16.7594 13.243 11.2624 19.9998 11.2624C22.7895 11.2624 25.4175 12.1755 27.5996 13.9032C27.8533 14.104 28.2218 14.0612 28.4227 13.8075C28.6236 13.5537 28.5807 13.1853 28.327 12.9843C25.9358 11.0912 23.0563 10.0905 19.9998 10.0905C12.597 10.0905 6.57422 16.1132 6.57422 23.5161C6.57422 26.5644 7.57008 29.4379 9.45414 31.8258C9.65469 32.0799 10.0231 32.1233 10.2771 31.9229C10.5312 31.7225 10.5746 31.354 10.3742 31.1C8.65476 28.9208 7.74602 26.2984 7.74602 23.5161Z" fill="#0595F7"/>
<path d="M29.5226 14.8841C29.2733 15.0904 29.2385 15.4597 29.4448 15.7091C31.256 17.8976 32.2534 20.6702 32.2534 23.5163C32.2534 30.273 26.7563 35.77 19.9996 35.77C17.1582 35.77 14.3891 34.7755 12.2023 32.9695C11.9527 32.7634 11.5834 32.7988 11.3774 33.0482C11.1713 33.2977 11.2065 33.667 11.456 33.8731C13.8523 35.8521 16.8864 36.9419 19.9995 36.9419C27.4024 36.9419 33.4252 30.9191 33.4252 23.5163C33.4252 20.3981 32.3322 17.3602 30.3475 14.962C30.1413 14.7127 29.7719 14.6777 29.5226 14.8841Z" fill="#0595F7"/>
<path d="M30.317 23.1275C30.2203 20.5192 29.149 18.0646 27.3003 16.2159C25.4516 14.3672 22.997 13.2959 20.3888 13.1993C19.8673 13.1782 19.4141 13.5996 19.4141 14.1401V21.535C18.5592 21.7883 17.9336 22.5804 17.9336 23.5162C17.9336 24.6556 18.8605 25.5827 20 25.5827C20.9359 25.5827 21.728 24.957 21.9812 24.1022H29.3762C29.9083 24.1021 30.3366 23.6593 30.317 23.1275ZM20 24.4107C19.5068 24.4107 19.1055 24.0094 19.1055 23.5162C19.1055 23.023 19.5067 22.6216 20 22.6216C20.4933 22.6216 20.8945 23.0229 20.8945 23.5162C20.8945 24.0094 20.4933 24.4107 20 24.4107ZM21.9812 22.9302C21.783 22.2612 21.2549 21.733 20.5859 21.5348V14.3824C22.8077 14.5228 24.8898 15.4627 26.4716 17.0445C28.0536 18.6265 28.9934 20.7084 29.1338 22.9302H21.9812Z" fill="#0595F7"/>
</svg>
