<svg width="40" height="40" viewBox="0 0 40 40" fill="none" xmlns="http://www.w3.org/2000/svg">
<path d="M28.0497 2.05188H26.1102V1.37508C26.1102 0.616875 25.4933 0 24.7351 0H23.7881C23.0298 0 22.4129 0.616875 22.4129 1.37516V2.05195H20.0072V1.37516C20.0072 0.616875 19.3903 0 18.6321 0H17.6851C16.9268 0 16.3099 0.616875 16.3099 1.37516V2.05195H13.9041V1.37516C13.9041 0.616875 13.2873 0 12.529 0H11.582C10.8237 0 10.2069 0.616875 10.2069 1.37516V2.05195H7.80109V1.37516C7.80109 0.616875 7.18422 0 6.42594 0H5.47891C4.72062 0 4.10375 0.616875 4.10375 1.37516V2.05195H2.1643C0.970937 2.05187 0 3.02281 0 4.21617V11.8867C0 12.2103 0.262344 12.4727 0.585938 12.4727C0.909531 12.4727 1.17188 12.2103 1.17188 11.8867V8.59023H29.0422V27.0273C29.0422 27.3509 29.3045 27.6133 29.6281 27.6133C29.9518 27.6133 30.2141 27.3509 30.2141 27.0273V4.21617C30.2141 3.02281 29.2431 2.05188 28.0497 2.05188ZM23.5848 1.37516C23.5848 1.26305 23.6761 1.17188 23.7882 1.17188H24.7352C24.8473 1.17188 24.9384 1.26305 24.9384 1.37516V3.90055C24.9384 4.01266 24.8473 4.10383 24.7352 4.10383H23.7882C23.6761 4.10383 23.5848 4.01266 23.5848 3.90055V1.37516ZM17.6851 1.17188H18.6321C18.7442 1.17188 18.8354 1.26305 18.8354 1.37516V3.90055C18.8354 4.01266 18.7442 4.10383 18.6321 4.10383H17.6851C17.573 4.10383 17.4818 4.01266 17.4818 3.90055V1.37516C17.4818 1.26305 17.573 1.17188 17.6851 1.17188ZM11.3787 1.37516C11.3787 1.26305 11.4698 1.17188 11.582 1.17188H12.529C12.6411 1.17188 12.7323 1.26305 12.7323 1.37516V3.90055C12.7323 4.01266 12.6411 4.10383 12.529 4.10383H11.582C11.4699 4.10383 11.3787 4.01266 11.3787 3.90055V1.37516H11.3787ZM5.27563 1.37516C5.27563 1.26305 5.3668 1.17188 5.47891 1.17188H6.42594C6.53805 1.17188 6.62922 1.26305 6.62922 1.37516V3.90055C6.62922 4.01266 6.53805 4.10383 6.42594 4.10383H5.47891C5.3668 4.10383 5.27563 4.01266 5.27563 3.90055V1.37516ZM1.17188 4.21617C1.17188 3.66898 1.61711 3.22375 2.1643 3.22375H4.10375V3.90055C4.10375 4.65883 4.72062 5.2757 5.47891 5.2757H6.42594C7.18422 5.2757 7.80109 4.65883 7.80109 3.90055V3.22375H10.2069V3.90055C10.2069 4.65883 10.8237 5.2757 11.582 5.2757H12.5291C13.2873 5.2757 13.9042 4.65883 13.9042 3.90055V3.22375H16.31V3.90055C16.31 4.65883 16.9269 5.2757 17.6852 5.2757H18.6322C19.3905 5.2757 20.0073 4.65883 20.0073 3.90055V3.22375H22.413V3.90055C22.413 4.65883 23.0299 5.2757 23.7883 5.2757H24.7352C25.4934 5.2757 26.1104 4.65883 26.1104 3.90055V3.22375H28.0498C28.5971 3.22375 29.0423 3.66898 29.0423 4.21617V7.41836H1.17188V4.21617Z" fill="#0595F7"/>
<path d="M29.6281 29.1758C29.3045 29.1758 29.0422 29.4381 29.0422 29.7617V32.7848V32.7851C29.0422 33.3322 28.5971 33.7773 28.05 33.7773H2.16406C1.61695 33.7773 1.17188 33.3322 1.17188 32.7851V32.7848V14.6211C1.17188 14.2975 0.909531 14.0352 0.585938 14.0352C0.262344 14.0352 0 14.2975 0 14.6211V37.8357C0 39.0291 0.970937 40 2.1643 40H28.0497C29.2431 40 30.2141 39.0291 30.2141 37.8357V29.7617C30.2141 29.4381 29.9518 29.1758 29.6281 29.1758ZM2.16406 34.9492H28.05C28.4075 34.9492 28.7448 34.8616 29.0422 34.7074V35.3103C29.0422 35.8575 28.597 36.3027 28.0497 36.3027H2.1643C1.61711 36.3027 1.17188 35.8575 1.17188 35.3103V34.7074C1.4693 34.8616 1.80656 34.9492 2.16406 34.9492ZM28.0497 38.8281H2.1643C1.61711 38.8281 1.17188 38.3829 1.17188 37.8357V37.2327C1.46938 37.3869 1.80672 37.4746 2.1643 37.4746H28.0497C28.4073 37.4746 28.7447 37.3869 29.0422 37.2327V37.8357C29.0422 38.3829 28.597 38.8281 28.0497 38.8281Z" fill="#0595F7"/>
<path d="M25.5243 13.0887C25.848 13.0887 26.1103 12.8263 26.1103 12.5027C26.1103 12.1792 25.848 11.9168 25.5243 11.9168H8.63574C8.31215 11.9168 8.0498 12.1792 8.0498 12.5027C8.0498 12.8263 8.31215 13.0887 8.63574 13.0887H25.5243Z" fill="#0595F7"/>
<path d="M4.68945 19.4022H25.5241C25.8477 19.4022 26.11 19.1398 26.11 18.8162C26.11 18.4926 25.8477 18.2303 25.5241 18.2303H4.68945C4.36586 18.2303 4.10352 18.4926 4.10352 18.8162C4.10352 19.1398 4.36586 19.4022 4.68945 19.4022Z" fill="#0595F7"/>
<path d="M4.10352 15.6595C4.10352 15.9831 4.36586 16.2454 4.68945 16.2454H25.5241C25.8477 16.2454 26.11 15.9831 26.11 15.6595C26.11 15.3359 25.8477 15.0735 25.5241 15.0735H4.68945C4.36586 15.0735 4.10352 15.3359 4.10352 15.6595Z" fill="#0595F7"/>
<path d="M4.68945 22.5589H25.5241C25.8477 22.5589 26.11 22.2966 26.11 21.973C26.11 21.6494 25.8477 21.387 25.5241 21.387H4.68945C4.36586 21.387 4.10352 21.6494 4.10352 21.973C4.10352 22.2966 4.36586 22.5589 4.68945 22.5589Z" fill="#0595F7"/>
<path d="M39.2111 5.60353V3.90056C39.2111 2.7072 38.2402 1.73627 37.0468 1.73627H35.1527C33.9594 1.73627 32.9884 2.7072 32.9884 3.90056V5.60353C32.5281 5.77728 32.1992 6.22119 32.1992 6.74158V8.00431C32.1992 8.52478 32.5281 8.96877 32.9886 9.14244V14.4046C32.9886 14.7282 33.2509 14.9906 33.5745 14.9906C33.8982 14.9906 34.1605 14.7282 34.1605 14.4046V9.22181H38.0394V32.1765C38.0394 32.6687 37.8991 33.1482 37.6341 33.5629L36.2706 35.6922C36.2187 35.7735 36.1414 35.7857 36.0998 35.7857H36.0998C36.058 35.7857 35.9804 35.7735 35.9281 35.6919L34.5658 33.5633C34.3005 33.1482 34.1604 32.6687 34.1604 32.1765V17.1391C34.1604 16.8155 33.8981 16.5531 33.5745 16.5531C33.2508 16.5531 32.9885 16.8155 32.9885 17.1391V32.1766C32.9885 32.8928 33.1925 33.5906 33.5786 34.1948L34.9412 36.324C35.0841 36.5468 35.2832 36.7191 35.5137 36.8274V37.6778C35.5137 38.0014 35.776 38.2638 36.0997 38.2638C36.4234 38.2638 36.6856 38.0014 36.6856 37.6778V36.8274C36.9162 36.7191 37.1153 36.5466 37.2577 36.3238L38.6212 34.1944C39.0071 33.5906 39.2112 32.8928 39.2112 32.1765V9.14236C39.6714 8.96853 40.0002 8.5247 40.0002 8.00431V6.74158C40.0003 6.22119 39.6715 5.77728 39.2111 5.60353ZM38.783 6.69619C38.808 6.69619 38.8284 6.71658 38.8284 6.74158V8.00431C38.8284 8.02939 38.808 8.04978 38.783 8.04978H33.4166C33.3916 8.04978 33.3712 8.02939 33.3712 8.00431V6.74158C33.3712 6.71658 33.3916 6.69619 33.4166 6.69619H38.783ZM35.1527 2.90814H37.0468C37.5941 2.90814 38.0392 3.35338 38.0392 3.90056V5.52439H34.1603V3.90056C34.1603 3.3533 34.6055 2.90814 35.1527 2.90814Z" fill="#0595F7"/>
</svg>
