<svg width="40" height="31" viewBox="0 0 40 31" fill="none" xmlns="http://www.w3.org/2000/svg">
<path d="M39.1709 30.5751V30.6558H39.2456C39.2621 30.6558 39.2762 30.6519 39.2864 30.6456C39.2959 30.6393 39.3014 30.6284 39.3014 30.6151C39.3014 30.6018 39.2959 30.5916 39.2864 30.5853C39.2762 30.5783 39.2621 30.5751 39.2456 30.5751H39.1709ZM39.2463 30.5188C39.2849 30.5188 39.3147 30.5274 39.3359 30.5446C39.3572 30.5618 39.3674 30.5853 39.3674 30.6151C39.3674 30.6401 39.3595 30.6605 39.3422 30.6769C39.3257 30.6926 39.3021 30.7028 39.2707 30.7067L39.3697 30.8202H39.2927L39.2008 30.7075H39.1709V30.8202H39.1064V30.5188H39.2463ZM39.2267 30.9244C39.2621 30.9244 39.2951 30.9173 39.3249 30.904C39.3556 30.8907 39.3823 30.8727 39.4051 30.85C39.4279 30.8273 39.446 30.8006 39.4593 30.7693C39.4719 30.7388 39.479 30.7059 39.479 30.6707C39.479 30.6354 39.4719 30.6025 39.4593 30.572C39.446 30.5415 39.4279 30.5141 39.4051 30.4914C39.3823 30.4686 39.3556 30.4506 39.3249 30.4373C39.2951 30.4248 39.2621 30.4185 39.2267 30.4185C39.1913 30.4185 39.1575 30.4248 39.1269 30.4373C39.0954 30.4506 39.0679 30.4686 39.0451 30.4914C39.0224 30.5141 39.0043 30.5415 38.9917 30.572C38.9783 30.6025 38.9721 30.6354 38.9721 30.6707C38.9721 30.7059 38.9783 30.7388 38.9917 30.7693C39.0043 30.8006 39.0224 30.8273 39.0451 30.85C39.0679 30.8727 39.0954 30.8907 39.1269 30.904C39.1575 30.9173 39.1913 30.9244 39.2267 30.9244ZM39.2267 30.3457C39.2731 30.3457 39.3155 30.3543 39.3564 30.3716C39.3965 30.388 39.431 30.4115 39.4617 30.4412C39.4916 30.4702 39.5151 30.5047 39.5324 30.5446C39.5497 30.5838 39.5584 30.626 39.5584 30.6707C39.5584 30.7153 39.5497 30.7576 39.5324 30.7967C39.5151 30.8359 39.4916 30.8703 39.4617 30.9001C39.431 30.9291 39.3965 30.9525 39.3564 30.9698C39.3155 30.987 39.2731 30.9956 39.2267 30.9956C39.1795 30.9956 39.1363 30.987 39.0954 30.9698C39.0546 30.9525 39.0192 30.9291 38.9893 30.9001C38.9595 30.8703 38.9359 30.8359 38.9186 30.7967C38.9013 30.7576 38.8927 30.7153 38.8927 30.6707C38.8927 30.626 38.9013 30.5838 38.9186 30.5446C38.9359 30.5047 38.9595 30.4702 38.9893 30.4412C39.0192 30.4115 39.0546 30.388 39.0954 30.3716C39.1363 30.3543 39.1795 30.3457 39.2267 30.3457ZM8.60628 29.1845C8.60628 28.6098 8.9843 28.1377 9.60204 28.1377C10.1923 28.1377 10.5907 28.5895 10.5907 29.1845C10.5907 29.7796 10.1923 30.2314 9.60204 30.2314C8.9843 30.2314 8.60628 29.7593 8.60628 29.1845ZM11.2635 29.1845V27.5496H10.5499V27.9466C10.3235 27.6522 9.98007 27.4674 9.51323 27.4674C8.59291 27.4674 7.87143 28.1862 7.87143 29.1845C7.87143 30.1836 8.59291 30.9016 9.51323 30.9016C9.98007 30.9016 10.3235 30.7169 10.5499 30.4225V30.8194H11.2635V29.1845ZM35.3788 29.1845C35.3788 28.6098 35.7568 28.1377 36.3746 28.1377C36.9656 28.1377 37.3633 28.5895 37.3633 29.1845C37.3633 29.7796 36.9656 30.2314 36.3746 30.2314C35.7568 30.2314 35.3788 29.7593 35.3788 29.1845ZM38.0368 29.1845V26.2366H37.3224V27.9466C37.0961 27.6522 36.7526 27.4674 36.2858 27.4674C35.3654 27.4674 34.644 28.1862 34.644 29.1845C34.644 30.1836 35.3654 30.9016 36.2858 30.9016C36.7526 30.9016 37.0961 30.7169 37.3224 30.4225V30.8194H38.0368V29.1845ZM20.1216 28.104C20.5814 28.104 20.8769 28.3914 20.9524 28.8972H19.2493C19.3255 28.425 19.6132 28.104 20.1216 28.104ZM20.1358 27.4674C19.1738 27.4674 18.5011 28.1651 18.5011 29.1845C18.5011 30.2244 19.2013 30.9016 20.1837 30.9016C20.6781 30.9016 21.1308 30.7787 21.5292 30.4436L21.1795 29.9166C20.9044 30.1351 20.5539 30.2588 20.2246 30.2588C19.7648 30.2588 19.3459 30.0466 19.243 29.4578H21.6801C21.6872 29.3693 21.6943 29.2801 21.6943 29.1845C21.6872 28.1651 21.0553 27.4674 20.1358 27.4674ZM28.7527 29.1845C28.7527 28.6098 29.1307 28.1377 29.7484 28.1377C30.3387 28.1377 30.7371 28.5895 30.7371 29.1845C30.7371 29.7796 30.3387 30.2314 29.7484 30.2314C29.1307 30.2314 28.7527 29.7593 28.7527 29.1845ZM31.4099 29.1845V27.5496H30.6963V27.9466C30.4691 27.6522 30.1265 27.4674 29.6596 27.4674C28.7393 27.4674 28.0178 28.1862 28.0178 29.1845C28.0178 30.1836 28.7393 30.9016 29.6596 30.9016C30.1265 30.9016 30.4691 30.7169 30.6963 30.4225V30.8194H31.4099V29.1845ZM24.7225 29.1845C24.7225 30.1766 25.4156 30.9016 26.4735 30.9016C26.9678 30.9016 27.2971 30.792 27.654 30.5117L27.3113 29.937C27.0433 30.1288 26.7619 30.2314 26.4523 30.2314C25.8825 30.2244 25.4636 29.8141 25.4636 29.1845C25.4636 28.555 25.8825 28.1447 26.4523 28.1377C26.7619 28.1377 27.0433 28.2402 27.3113 28.4321L27.654 27.8574C27.2971 27.577 26.9678 27.4674 26.4735 27.4674C25.4156 27.4674 24.7225 28.1925 24.7225 29.1845ZM33.9233 27.4674C33.5114 27.4674 33.2435 27.6593 33.058 27.9466V27.5496H32.3506V30.8194H33.065V28.9864C33.065 28.4454 33.2985 28.1447 33.7653 28.1447C33.9099 28.1447 34.0608 28.1651 34.2117 28.2269L34.4318 27.5567C34.2738 27.4948 34.0679 27.4674 33.9233 27.4674ZM14.7931 27.8096C14.4496 27.5841 13.9765 27.4674 13.4546 27.4674C12.6231 27.4674 12.0879 27.8644 12.0879 28.5143C12.0879 29.0475 12.4864 29.3764 13.2204 29.4789L13.5576 29.5267C13.949 29.5815 14.1337 29.6841 14.1337 29.8689C14.1337 30.1218 13.8728 30.2659 13.3855 30.2659C12.8911 30.2659 12.5343 30.1085 12.2938 29.9237L11.9575 30.4773C12.3488 30.7646 12.8432 30.9016 13.3784 30.9016C14.3262 30.9016 14.8756 30.4569 14.8756 29.8344C14.8756 29.2597 14.4433 28.959 13.7289 28.8565L13.3926 28.8079C13.0837 28.7672 12.8361 28.7061 12.8361 28.4869C12.8361 28.2473 13.0695 28.104 13.4609 28.104C13.8798 28.104 14.2854 28.2614 14.4842 28.3843L14.7931 27.8096ZM24.001 27.4674C23.5891 27.4674 23.3211 27.6593 23.1365 27.9466V27.5496H22.4291V30.8194H23.1427V28.9864C23.1427 28.4454 23.3762 28.1447 23.843 28.1447C23.9876 28.1447 24.1385 28.1651 24.2894 28.2269L24.5095 27.5567C24.3515 27.4948 24.1456 27.4674 24.001 27.4674ZM17.9108 27.5496H16.7437V26.5576H16.0223V27.5496H15.3566V28.1995H16.0223V29.6911C16.0223 30.4499 16.3178 30.9016 17.1619 30.9016C17.4715 30.9016 17.8283 30.8061 18.0547 30.6487L17.8488 30.0396C17.6358 30.1625 17.4023 30.2244 17.2169 30.2244C16.8601 30.2244 16.7437 30.0051 16.7437 29.677V28.1995H17.9108V27.5496ZM7.24034 30.8194V28.7672C7.24034 27.9944 6.74599 27.4745 5.94906 27.4674C5.53016 27.4604 5.09791 27.5904 4.79533 28.0492C4.56898 27.6867 4.21217 27.4674 3.71075 27.4674C3.36023 27.4674 3.01756 27.57 2.74956 27.9529V27.5496H2.03516V30.8194H2.75585V29.0068C2.75585 28.4391 3.07179 28.1377 3.55985 28.1377C4.03376 28.1377 4.27347 28.4454 4.27347 28.9998V30.8194H4.99495V29.0068C4.99495 28.4391 5.32425 28.1377 5.79816 28.1377C6.28544 28.1377 6.51886 28.4454 6.51886 28.9998V30.8194H7.24034Z" fill="#231F20"/>
<path d="M39.6107 19.9453V19.4677H39.4857L39.3411 19.7958L39.1973 19.4677H39.0715V19.9453H39.1604V19.5851L39.2955 19.896H39.3875L39.5227 19.5843V19.9453H39.6107ZM38.8177 19.9453V19.5491H38.978V19.4685H38.5693V19.5491H38.7297V19.9453H38.8177Z" fill="#F79410"/>
<path d="M25.4015 21.9998H14.5859V2.63477H25.4015V21.9998Z" fill="#FF5F00"/>
<path d="M15.2784 12.3156C15.2784 8.38733 17.1245 4.88812 19.9994 2.6331C17.8971 0.984112 15.2438 -0.000112534 12.3602 -0.000112534C5.5337 -0.000112534 0 5.51374 0 12.3156C0 19.1175 5.5337 24.6313 12.3602 24.6313C15.2438 24.6313 17.8971 23.6471 19.9994 21.9981C17.1245 19.7431 15.2784 16.2439 15.2784 12.3156Z" fill="#EB001B"/>
<path d="M39.9885 12.3156C39.9885 19.1175 34.4548 24.6313 27.6283 24.6313C24.7447 24.6313 22.0914 23.6471 19.9883 21.9981C22.864 19.7431 24.7101 16.2439 24.7101 12.3156C24.7101 8.38733 22.864 4.88812 19.9883 2.6331C22.0914 0.984112 24.7447 -0.000112534 27.6283 -0.000112534C34.4548 -0.000112534 39.9885 5.51374 39.9885 12.3156Z" fill="#F79E1B"/>
</svg>
