<svg width="61" height="16" viewBox="0 0 61 16" fill="none" xmlns="http://www.w3.org/2000/svg">
<g clip-path="url(#clip0)">
<path d="M1.20824 8.69759L14.0082 15.8976C14.2562 16.0368 14.5586 16.0336 14.8034 15.8912C15.0498 15.7472 15.2002 15.4848 15.2002 15.2L15.2002 0.800018C15.2002 0.515219 15.0498 0.252819 14.8034 0.10882C14.6786 0.0368204 14.5394 2.09231e-05 14.4002 2.09109e-05C14.2658 2.08991e-05 14.1298 0.0336207 14.0082 0.102421L1.20824 7.3024C0.957042 7.4448 0.800242 7.71039 0.800242 7.99999C0.800242 8.28959 0.957041 8.55519 1.20824 8.69759Z" fill="#FFCC00"/>
</g>
<g clip-path="url(#clip1)">
<path d="M16.2082 8.69759L29.0082 15.8976C29.2562 16.0368 29.5586 16.0336 29.8034 15.8912C30.0498 15.7472 30.2002 15.4848 30.2002 15.2L30.2002 0.800018C30.2002 0.515219 30.0498 0.252819 29.8034 0.10882C29.6786 0.0368204 29.5394 2.09231e-05 29.4002 2.09109e-05C29.2658 2.08991e-05 29.1298 0.0336207 29.0082 0.102421L16.2082 7.3024C15.957 7.4448 15.8002 7.71039 15.8002 7.99999C15.8002 8.28959 15.957 8.55519 16.2082 8.69759Z" fill="#FFCC00"/>
</g>
<g clip-path="url(#clip2)">
<path d="M31.2082 8.69759L44.0082 15.8976C44.2562 16.0368 44.5586 16.0336 44.8034 15.8912C45.0498 15.7472 45.2002 15.4848 45.2002 15.2L45.2002 0.800018C45.2002 0.515219 45.0498 0.252819 44.8034 0.10882C44.6786 0.0368204 44.5394 2.09231e-05 44.4002 2.09109e-05C44.2658 2.08991e-05 44.1298 0.0336207 44.0082 0.102421L31.2082 7.3024C30.957 7.4448 30.8002 7.71039 30.8002 7.99999C30.8002 8.28959 30.957 8.55519 31.2082 8.69759Z" fill="#FFCC00"/>
</g>
<g clip-path="url(#clip3)">
<path d="M46.2082 8.69759L59.0082 15.8976C59.2562 16.0368 59.5586 16.0336 59.8034 15.8912C60.0498 15.7472 60.2002 15.4848 60.2002 15.2L60.2002 0.800018C60.2002 0.515219 60.0498 0.252819 59.8034 0.10882C59.6786 0.0368204 59.5394 2.09231e-05 59.4002 2.09109e-05C59.2658 2.08991e-05 59.1298 0.0336207 59.0082 0.102421L46.2082 7.3024C45.957 7.4448 45.8002 7.71039 45.8002 7.99999C45.8002 8.28959 45.957 8.55519 46.2082 8.69759Z" fill="#FFCC00"/>
</g>
<defs>
<clipPath id="clip0">
<rect width="16" height="16" fill="white" transform="translate(16 16) rotate(-180)"/>
</clipPath>
<clipPath id="clip1">
<rect width="16" height="16" fill="white" transform="translate(31 16) rotate(-180)"/>
</clipPath>
<clipPath id="clip2">
<rect width="16" height="16" fill="white" transform="translate(46 16) rotate(-180)"/>
</clipPath>
<clipPath id="clip3">
<rect width="16" height="16" fill="white" transform="translate(61 16) rotate(-180)"/>
</clipPath>
</defs>
</svg>
