<svg width="26" height="18" viewBox="0 0 26 18" fill="none" xmlns="http://www.w3.org/2000/svg">
<path d="M0 0H26V6H0V0Z" fill="white"/>
<rect y="6" width="26" height="6" fill="#0039A6"/>
<rect y="12" width="26" height="6" fill="#D52B1E"/>
</svg>
