<svg width="44" height="44" viewBox="0 0 44 44" fill="none" xmlns="http://www.w3.org/2000/svg">
<path d="M43.0837 21.0833C43.597 21.0833 44.0003 21.4866 44.0003 21.9999C44.0003 22.5132 43.597 22.9166 43.0837 22.9166H42.167V21.0833H43.0837Z" fill="white"/>
<path d="M22.917 21.0833H42.167V22.9166H22.917V21.0833Z" fill="white"/>
<path d="M39.4167 44H22C22.5133 44 22.9167 43.5967 22.9167 43.0833V42.1667H39.4167C40.9383 42.1667 42.1667 40.9383 42.1667 39.4167V22.9167H43.0833C43.5967 22.9167 44 22.5133 44 22V39.4167C44 41.9467 41.9467 44 39.4167 44Z" fill="white"/>
<path d="M44 4.58333V22C44 21.4867 43.5967 21.0833 43.0833 21.0833H42.1667V4.58333C42.1667 3.06167 40.9383 1.83333 39.4167 1.83333H22.9167V0.916667C22.9167 0.403333 22.5133 0 22 0H39.4167C41.9467 0 44 2.05333 44 4.58333Z" fill="white"/>
<path d="M36.667 11C37.1803 11 37.5836 11.4033 37.5836 11.9167C37.5836 12.43 37.1803 12.8333 36.667 12.8333H29.3337C28.8203 12.8333 28.417 12.43 28.417 11.9167C28.417 11.4033 28.8203 11 29.3337 11H36.667Z" fill="white"/>
<path d="M36.667 29.3333C37.1803 29.3333 37.5836 29.7366 37.5836 30.2499C37.5836 30.7632 37.1803 31.1666 36.667 31.1666H29.3337C28.8203 31.1666 28.417 30.7632 28.417 30.2499C28.417 29.7366 28.8203 29.3333 29.3337 29.3333H36.667Z" fill="white"/>
<path d="M36.667 34.8333C37.1803 34.8333 37.5836 35.2366 37.5836 35.7499C37.5836 36.2632 37.1803 36.6666 36.667 36.6666H29.3337C28.8203 36.6666 28.417 36.2632 28.417 35.7499C28.417 35.2366 28.8203 34.8333 29.3337 34.8333H36.667Z" fill="white"/>
<path d="M22.9163 42.1666V43.0833C22.9163 43.5966 22.513 44 21.9997 44C21.4863 44 21.083 43.5966 21.083 43.0833V42.1666H22.9163Z" fill="white"/>
<path d="M21.083 22.9167H22.9163V42.1667H21.083V22.9167Z" fill="white"/>
<path d="M21.083 21.0833H22.9163V22.9166H21.083V21.0833Z" fill="white"/>
<path d="M21.083 1.83325H22.9163V21.0833H21.083V1.83325Z" fill="white"/>
<path d="M22.9163 0.916667V1.83333H21.083V0.916667C21.083 0.403333 21.4863 0 21.9997 0C22.513 0 22.9163 0.403333 22.9163 0.916667Z" fill="white"/>
<path d="M1.83301 21.0833H21.083V22.9166H1.83301V21.0833Z" fill="white"/>
<path d="M14.667 11C15.1803 11 15.5837 11.4033 15.5837 11.9167C15.5837 12.43 15.1803 12.8333 14.667 12.8333H11.917V11H14.667Z" fill="white"/>
<path d="M14.3917 35.1083C14.7583 35.4567 14.7583 36.0433 14.3917 36.3917C14.2267 36.575 13.9883 36.6667 13.75 36.6667C13.5117 36.6667 13.2733 36.575 13.1083 36.3917L11 34.2833L12.2833 33L14.3917 35.1083Z" fill="white"/>
<path d="M13.1083 29.6083C13.4567 29.2416 14.0433 29.2416 14.3917 29.6083C14.7583 29.9566 14.7583 30.5433 14.3917 30.8916L12.2833 32.9999L11 31.7166L13.1083 29.6083Z" fill="white"/>
<path d="M9.71094 32.9982L10.9943 31.7148L12.2777 32.9982L10.9943 34.2816L9.71094 32.9982Z" fill="white"/>
<path d="M11.9163 12.8333V15.5832C11.9163 16.0966 11.513 16.4999 10.9997 16.4999C10.4863 16.4999 10.083 16.0966 10.083 15.5832V12.8333H11.9163Z" fill="white"/>
<path d="M10.083 11H11.9163V12.8333H10.083V11Z" fill="white"/>
<path d="M11.9163 8.24992V10.9999H10.083V8.24992C10.083 7.73658 10.4863 7.33325 10.9997 7.33325C11.513 7.33325 11.9163 7.73658 11.9163 8.24992Z" fill="white"/>
<path d="M10.9997 31.7166L9.71635 32.9999L7.60801 30.8916C7.24134 30.5433 7.24134 29.9566 7.60801 29.6083C7.95634 29.2416 8.54301 29.2416 8.89134 29.6083L10.9997 31.7166Z" fill="white"/>
<path d="M10.0837 11V12.8333H7.33366C6.82033 12.8333 6.41699 12.43 6.41699 11.9167C6.41699 11.4033 6.82033 11 7.33366 11H10.0837Z" fill="white"/>
<path d="M8.89134 36.3917C8.72634 36.575 8.48801 36.6667 8.24968 36.6667C8.01134 36.6667 7.77301 36.575 7.60801 36.3917C7.24134 36.0433 7.24134 35.4567 7.60801 35.1083L9.71635 33L10.9997 34.2833L8.89134 36.3917Z" fill="white"/>
<path d="M1.83333 21.0833V22.9166H0.916667C0.403333 22.9166 0 22.5132 0 21.9999C0 21.4866 0.403333 21.0833 0.916667 21.0833H1.83333Z" fill="white"/>
<path d="M0 4.58333C0 2.05333 2.05333 0 4.58333 0H22C21.4867 0 21.0833 0.403333 21.0833 0.916667V1.83333H4.58333C3.06167 1.83333 1.83333 3.06167 1.83333 4.58333V21.0833H0.916667C0.403333 21.0833 0 21.4867 0 22V4.58333Z" fill="white"/>
<path d="M1.83333 39.4167C1.83333 40.9383 3.06167 42.1667 4.58333 42.1667H21.0833V43.0833C21.0833 43.5967 21.4867 44 22 44H4.58333C2.05333 44 0 41.9467 0 39.4167V22C0 22.5133 0.403333 22.9167 0.916667 22.9167H1.83333V39.4167Z" fill="white"/>
</svg>
