<svg width="6" height="6" viewBox="0 0 6 6" fill="none" xmlns="http://www.w3.org/2000/svg">
<path d="M5.54679 2.7384L0.746803 0.0384114C0.653804 -0.0137885 0.540404 -0.0125885 0.448604 0.0408114C0.356205 0.0948112 0.299805 0.193211 0.299805 0.300011V5.69999C0.299805 5.80679 0.356205 5.90519 0.448604 5.95919C0.495404 5.98619 0.547604 5.99999 0.599804 5.99999C0.650204 5.99999 0.701203 5.98739 0.746803 5.96159L5.54679 3.2616C5.64099 3.2082 5.69979 3.1086 5.69979 3C5.69979 2.8914 5.64099 2.7918 5.54679 2.7384Z" fill="#0595F7"/>
</svg>
