<svg width="50" height="50" viewBox="0 0 50 50" fill="none" xmlns="http://www.w3.org/2000/svg">
<rect width="50" height="50" rx="25" fill="#F3F3F5"/>
<path d="M37 31.1875C37 28.429 35.0777 26.1209 32.5 25.5256C32.0779 25.4283 31.6392 25.375 31.1875 25.375C31.0613 25.375 30.9366 25.3805 30.8125 25.3883C27.9957 25.5679 25.7252 27.7527 25.4129 30.5313C25.3887 30.7467 25.375 30.9655 25.375 31.1875C25.375 31.6056 25.4202 32.0131 25.504 32.4063C26.0643 35.0311 28.3954 37 31.1875 37C34.3977 37 37 34.3977 37 31.1875ZM31.1875 35.0313C29.0646 35.0313 27.3437 33.3104 27.3437 31.1875C27.3437 29.0646 29.0646 27.3437 31.1875 27.3437C33.3103 27.3437 35.0312 29.0646 35.0312 31.1875C35.0312 33.3104 33.3103 35.0313 31.1875 35.0313Z" fill="#0595F7"/>
<path d="M31.9375 28.5625H30.625V30.625H28.5625V31.9375H31.9375V30.625V28.5625Z" fill="#0595F7"/>
<path d="M17.3125 13C16.9506 13 16.6562 13.2944 16.6562 13.6562V15.1562V16.75C16.6562 17.1119 16.9506 17.4062 17.3125 17.4062H17.875C18.2369 17.4062 18.5312 17.1118 18.5312 16.75V15.1562V13.6562C18.5312 13.2944 18.2369 13 17.875 13H17.3125Z" fill="#0595F7"/>
<path d="M27.625 13C27.2631 13 26.9688 13.2944 26.9688 13.6562V15.1562V16.75C26.9688 17.1119 27.2631 17.4062 27.625 17.4062H28.1875C28.5494 17.4062 28.8437 17.1118 28.8437 16.75V15.1562V13.6562C28.8437 13.2944 28.5493 13 28.1874 13H27.625Z" fill="#0595F7"/>
<path d="M14.5 32.4062H23.7813C23.6898 31.9513 23.6412 31.4813 23.6412 31C23.6412 30.8423 23.6481 30.6863 23.6582 30.5313H15.8125C15.1911 30.5313 14.6875 30.0276 14.6875 29.4063V20.4062H30.8125V23.885C30.9366 23.8786 31.0617 23.875 31.1875 23.875C31.636 23.875 32.0742 23.9185 32.5 23.9982V16.6562C32.5 15.8279 31.8284 15.1562 31 15.1562H29.7813V16.75C29.7813 17.6288 29.0664 18.3438 28.1875 18.3438H27.625C26.7462 18.3438 26.0312 17.6288 26.0312 16.75V15.1562H19.4687V16.75C19.4687 17.6288 18.7538 18.3438 17.875 18.3438H17.3125C16.4336 18.3438 15.7187 17.6288 15.7187 16.75V15.1562H14.5C13.6716 15.1562 13 15.8279 13 16.6562V30.9063C13 31.7346 13.6716 32.4062 14.5 32.4062Z" fill="#0595F7"/>
<path d="M18.2853 24.7071C19.1073 24.7071 19.7737 24.0408 19.7737 23.2187C19.7737 22.3967 19.1073 21.7303 18.2853 21.7303C17.4633 21.7303 16.7969 22.3967 16.7969 23.2187C16.7969 24.0408 17.4633 24.7071 18.2853 24.7071Z" fill="#0595F7"/>
<path d="M22.7501 24.7071C23.5721 24.7071 24.2385 24.0408 24.2385 23.2187C24.2385 22.3967 23.5721 21.7303 22.7501 21.7303C21.9281 21.7303 21.2617 22.3967 21.2617 23.2187C21.2617 24.0408 21.9281 24.7071 22.7501 24.7071Z" fill="#0595F7"/>
<path d="M27.215 24.7071C28.037 24.7071 28.7034 24.0408 28.7034 23.2187C28.7034 22.3967 28.037 21.7303 27.215 21.7303C26.3929 21.7303 25.7266 22.3967 25.7266 23.2187C25.7266 24.0408 26.3929 24.7071 27.215 24.7071Z" fill="#0595F7"/>
<path d="M22.7501 29.2071C23.5721 29.2071 24.2384 28.5408 24.2384 27.7188C24.2384 26.8968 23.5721 26.2305 22.7501 26.2305C21.9281 26.2305 21.2617 26.8968 21.2617 27.7188C21.2617 28.5408 21.9281 29.2071 22.7501 29.2071Z" fill="#0595F7"/>
<path d="M18.2852 29.2071C19.1072 29.2071 19.7736 28.5408 19.7736 27.7188C19.7736 26.8968 19.1072 26.2305 18.2852 26.2305C17.4632 26.2305 16.7969 26.8968 16.7969 27.7188C16.7969 28.5408 17.4632 29.2071 18.2852 29.2071Z" fill="#0595F7"/>
</svg>
