<svg width="10" height="6" viewBox="0 0 10 6" fill="none" xmlns="http://www.w3.org/2000/svg">
<path d="M5.00211 3.90064L1.26098 0.159663C1.15821 0.0566548 1.02081 -1.16361e-05 0.874309 -1.16379e-05C0.727724 -1.16396e-05 0.590407 0.0566548 0.48748 0.159663L0.159837 0.487468C0.056748 0.590313 6.13773e-08 0.727793 5.96302e-08 0.874297C5.78832e-08 1.0208 0.056748 1.15812 0.159837 1.26104L4.61398 5.71527C4.71724 5.81861 4.8552 5.87519 5.00187 5.87478C5.14919 5.87519 5.28699 5.81869 5.39033 5.71527L9.84016 1.26519C9.94325 1.16226 10 1.02495 10 0.878362C10 0.731858 9.94325 0.594541 9.84016 0.491533L9.51252 0.16381C9.29927 -0.0494425 8.95211 -0.0494425 8.73894 0.16381L5.00211 3.90064Z" fill="#052852"/>
</svg>
